Aulas/Aula 5/ATV 2/simulation/qsim/Aula5.msim.vcd
$comment
	File created using the following command:
		vcd file Aula5.msim.vcd -direction
$end
$date
	Wed Mar 15 23:21:20 2023
$end
$version
	ModelSim Version 2020.1
$end
$timescale
	1ps
$end

$scope module aula5_vhd_vec_tst $end
$var wire 1 ! CLOCK_50 $end
$var wire 1 " KEY [3] $end
$var wire 1 # KEY [2] $end
$var wire 1 $ KEY [1] $end
$var wire 1 % KEY [0] $end
$var wire 1 & LEDR [9] $end
$var wire 1 ' LEDR [8] $end
$var wire 1 ( LEDR [7] $end
$var wire 1 ) LEDR [6] $end
$var wire 1 * LEDR [5] $end
$var wire 1 + LEDR [4] $end
$var wire 1 , LEDR [3] $end
$var wire 1 - LEDR [2] $end
$var wire 1 . LEDR [1] $end
$var wire 1 / LEDR [0] $end
$var wire 1 0 palavra_controle [8] $end
$var wire 1 1 palavra_controle [7] $end
$var wire 1 2 palavra_controle [6] $end
$var wire 1 3 palavra_controle [5] $end
$var wire 1 4 palavra_controle [4] $end
$var wire 1 5 palavra_controle [3] $end
$var wire 1 6 palavra_controle [2] $end
$var wire 1 7 palavra_controle [1] $end
$var wire 1 8 palavra_controle [0] $end
$var wire 1 9 PC_OUT [8] $end
$var wire 1 : PC_OUT [7] $end
$var wire 1 ; PC_OUT [6] $end
$var wire 1 < PC_OUT [5] $end
$var wire 1 = PC_OUT [4] $end
$var wire 1 > PC_OUT [3] $end
$var wire 1 ? PC_OUT [2] $end
$var wire 1 @ PC_OUT [1] $end
$var wire 1 A PC_OUT [0] $end
$var wire 1 B SW [9] $end
$var wire 1 C SW [8] $end
$var wire 1 D SW [7] $end
$var wire 1 E SW [6] $end
$var wire 1 F SW [5] $end
$var wire 1 G SW [4] $end
$var wire 1 H SW [3] $end
$var wire 1 I SW [2] $end
$var wire 1 J SW [1] $end
$var wire 1 K SW [0] $end

$scope module i1 $end
$var wire 1 L gnd $end
$var wire 1 M vcc $end
$var wire 1 N unknown $end
$var wire 1 O devoe $end
$var wire 1 P devclrn $end
$var wire 1 Q devpor $end
$var wire 1 R ww_devoe $end
$var wire 1 S ww_devclrn $end
$var wire 1 T ww_devpor $end
$var wire 1 U ww_palavra_controle [8] $end
$var wire 1 V ww_palavra_controle [7] $end
$var wire 1 W ww_palavra_controle [6] $end
$var wire 1 X ww_palavra_controle [5] $end
$var wire 1 Y ww_palavra_controle [4] $end
$var wire 1 Z ww_palavra_controle [3] $end
$var wire 1 [ ww_palavra_controle [2] $end
$var wire 1 \ ww_palavra_controle [1] $end
$var wire 1 ] ww_palavra_controle [0] $end
$var wire 1 ^ ww_CLOCK_50 $end
$var wire 1 _ ww_KEY [3] $end
$var wire 1 ` ww_KEY [2] $end
$var wire 1 a ww_KEY [1] $end
$var wire 1 b ww_KEY [0] $end
$var wire 1 c ww_SW [9] $end
$var wire 1 d ww_SW [8] $end
$var wire 1 e ww_SW [7] $end
$var wire 1 f ww_SW [6] $end
$var wire 1 g ww_SW [5] $end
$var wire 1 h ww_SW [4] $end
$var wire 1 i ww_SW [3] $end
$var wire 1 j ww_SW [2] $end
$var wire 1 k ww_SW [1] $end
$var wire 1 l ww_SW [0] $end
$var wire 1 m ww_PC_OUT [8] $end
$var wire 1 n ww_PC_OUT [7] $end
$var wire 1 o ww_PC_OUT [6] $end
$var wire 1 p ww_PC_OUT [5] $end
$var wire 1 q ww_PC_OUT [4] $end
$var wire 1 r ww_PC_OUT [3] $end
$var wire 1 s ww_PC_OUT [2] $end
$var wire 1 t ww_PC_OUT [1] $end
$var wire 1 u ww_PC_OUT [0] $end
$var wire 1 v ww_LEDR [9] $end
$var wire 1 w ww_LEDR [8] $end
$var wire 1 x ww_LEDR [7] $end
$var wire 1 y ww_LEDR [6] $end
$var wire 1 z ww_LEDR [5] $end
$var wire 1 { ww_LEDR [4] $end
$var wire 1 | ww_LEDR [3] $end
$var wire 1 } ww_LEDR [2] $end
$var wire 1 ~ ww_LEDR [1] $end
$var wire 1 !! ww_LEDR [0] $end
$var wire 1 "! \CLOCK_50~input_o\ $end
$var wire 1 #! \KEY[1]~input_o\ $end
$var wire 1 $! \KEY[2]~input_o\ $end
$var wire 1 %! \KEY[3]~input_o\ $end
$var wire 1 &! \SW[0]~input_o\ $end
$var wire 1 '! \SW[1]~input_o\ $end
$var wire 1 (! \SW[2]~input_o\ $end
$var wire 1 )! \SW[3]~input_o\ $end
$var wire 1 *! \SW[4]~input_o\ $end
$var wire 1 +! \SW[5]~input_o\ $end
$var wire 1 ,! \SW[6]~input_o\ $end
$var wire 1 -! \SW[7]~input_o\ $end
$var wire 1 .! \SW[8]~input_o\ $end
$var wire 1 /! \SW[9]~input_o\ $end
$var wire 1 0! \KEY[0]~input_o\ $end
$var wire 1 1! \incrementaPC|Add0~1_sumout\ $end
$var wire 1 2! \incrementaPC|Add0~2\ $end
$var wire 1 3! \incrementaPC|Add0~5_sumout\ $end
$var wire 1 4! \incrementaPC|Add0~18\ $end
$var wire 1 5! \incrementaPC|Add0~21_sumout\ $end
$var wire 1 6! \~GND~combout\ $end
$var wire 1 7! \ROM1|memROM~2_combout\ $end
$var wire 1 8! \ROM1|memROM~3_combout\ $end
$var wire 1 9! \ROM1|memROM~4_combout\ $end
$var wire 1 :! \DECO|saida[3]~7_combout\ $end
$var wire 1 ;! \DECO|saida[5]~6_combout\ $end
$var wire 1 <! \DECO|saida[5]~3_combout\ $end
$var wire 1 =! \ROM1|memROM~7_combout\ $end
$var wire 1 >! \ROM1|memROM~8_combout\ $end
$var wire 1 ?! \RAM|process_0~0_combout\ $end
$var wire 1 @! \RAM|ram~165_combout\ $end
$var wire 1 A! \RAM|ram~24_q\ $end
$var wire 1 B! \RAM|ram~145_combout\ $end
$var wire 1 C! \RAM|ram~166_combout\ $end
$var wire 1 D! \RAM|ram~32_q\ $end
$var wire 1 E! \RAM|ram~146_combout\ $end
$var wire 1 F! \RAM|ram~147_combout\ $end
$var wire 1 G! \DECO|saida[4]~2_combout\ $end
$var wire 1 H! \ULA1|Add0~34_cout\ $end
$var wire 1 I! \ULA1|Add0~17_sumout\ $end
$var wire 1 J! \ULA1|saida[0]~4_combout\ $end
$var wire 1 K! \RAM|ram~17_q\ $end
$var wire 1 L! \RAM|ram~25_q\ $end
$var wire 1 M! \RAM|ram~155_combout\ $end
$var wire 1 N! \RAM|ram~156_combout\ $end
$var wire 1 O! \MUX1|saida_MUX[0]~0_combout\ $end
$var wire 1 P! \ULA1|Add0~18\ $end
$var wire 1 Q! \ULA1|Add0~21_sumout\ $end
$var wire 1 R! \ULA1|saida[1]~5_combout\ $end
$var wire 1 S! \RAM|ram~18_q\ $end
$var wire 1 T! \RAM|ram~157_combout\ $end
$var wire 1 U! \RAM|ram~26_q\ $end
$var wire 1 V! \RAM|ram~158_combout\ $end
$var wire 1 W! \RAM|ram~159_combout\ $end
$var wire 1 X! \MUX1|saida_MUX[1]~1_combout\ $end
$var wire 1 Y! \ULA1|Add0~22\ $end
$var wire 1 Z! \ULA1|Add0~25_sumout\ $end
$var wire 1 [! \ULA1|saida[2]~6_combout\ $end
$var wire 1 \! \RAM|ram~19_q\ $end
$var wire 1 ]! \RAM|ram~27_q\ $end
$var wire 1 ^! \RAM|ram~160_combout\ $end
$var wire 1 _! \RAM|ram~161_combout\ $end
$var wire 1 `! \MUX1|saida_MUX[2]~2_combout\ $end
$var wire 1 a! \ULA1|Add0~26\ $end
$var wire 1 b! \ULA1|Add0~29_sumout\ $end
$var wire 1 c! \ULA1|saida[3]~7_combout\ $end
$var wire 1 d! \RAM|ram~20_q\ $end
$var wire 1 e! \RAM|ram~162_combout\ $end
$var wire 1 f! \RAM|ram~28_q\ $end
$var wire 1 g! \RAM|ram~163_combout\ $end
$var wire 1 h! \RAM|ram~164_combout\ $end
$var wire 1 i! \MUX1|saida_MUX[3]~3_combout\ $end
$var wire 1 j! \ULA1|Add0~30\ $end
$var wire 1 k! \ULA1|Add0~13_sumout\ $end
$var wire 1 l! \ULA1|saida[4]~3_combout\ $end
$var wire 1 m! \RAM|ram~21_q\ $end
$var wire 1 n! \RAM|ram~29_q\ $end
$var wire 1 o! \RAM|ram~153_combout\ $end
$var wire 1 p! \RAM|ram~154_combout\ $end
$var wire 1 q! \ULA1|Add0~14\ $end
$var wire 1 r! \ULA1|Add0~9_sumout\ $end
$var wire 1 s! \ULA1|saida[5]~2_combout\ $end
$var wire 1 t! \RAM|ram~22_q\ $end
$var wire 1 u! \RAM|ram~150_combout\ $end
$var wire 1 v! \RAM|ram~30_q\ $end
$var wire 1 w! \RAM|ram~151_combout\ $end
$var wire 1 x! \RAM|ram~152_combout\ $end
$var wire 1 y! \ULA1|Add0~10\ $end
$var wire 1 z! \ULA1|Add0~5_sumout\ $end
$var wire 1 {! \ULA1|saida[6]~1_combout\ $end
$var wire 1 |! \RAM|ram~23_q\ $end
$var wire 1 }! \RAM|ram~31_q\ $end
$var wire 1 ~! \RAM|ram~148_combout\ $end
$var wire 1 !" \RAM|ram~149_combout\ $end
$var wire 1 "" \ULA1|Add0~6\ $end
$var wire 1 #" \ULA1|Add0~1_sumout\ $end
$var wire 1 $" \ULA1|saida[7]~0_combout\ $end
$var wire 1 %" \DECO|saida~1_combout\ $end
$var wire 1 &" \FLAG1|DOUT~0_combout\ $end
$var wire 1 '" \FLAG1|DOUT~1_combout\ $end
$var wire 1 (" \FLAG1|DOUT~2_combout\ $end
$var wire 1 )" \FLAG1|DOUT~3_combout\ $end
$var wire 1 *" \FLAG1|DOUT~4_combout\ $end
$var wire 1 +" \FLAG1|DOUT~q\ $end
$var wire 1 ," \DESVIO|saida~0_combout\ $end
$var wire 1 -" \incrementaPC|Add0~22\ $end
$var wire 1 ." \incrementaPC|Add0~25_sumout\ $end
$var wire 1 /" \incrementaPC|Add0~26\ $end
$var wire 1 0" \incrementaPC|Add0~29_sumout\ $end
$var wire 1 1" \incrementaPC|Add0~30\ $end
$var wire 1 2" \incrementaPC|Add0~33_sumout\ $end
$var wire 1 3" \ROM1|memROM~9_combout\ $end
$var wire 1 4" \ROM1|memROM~10_combout\ $end
$var wire 1 5" \ROM1|memROM~1_combout\ $end
$var wire 1 6" \ROM1|memROM~6_combout\ $end
$var wire 1 7" \incrementaPC|Add0~6\ $end
$var wire 1 8" \incrementaPC|Add0~9_sumout\ $end
$var wire 1 9" \incrementaPC|Add0~10\ $end
$var wire 1 :" \incrementaPC|Add0~13_sumout\ $end
$var wire 1 ;" \incrementaPC|Add0~14\ $end
$var wire 1 <" \incrementaPC|Add0~17_sumout\ $end
$var wire 1 =" \ROM1|memROM~11_combout\ $end
$var wire 1 >" \ROM1|memROM~5_combout\ $end
$var wire 1 ?" \ROM1|memROM~0_combout\ $end
$var wire 1 @" \DECO|Equal3~0_combout\ $end
$var wire 1 A" \DECO|saida[1]~0_combout\ $end
$var wire 1 B" \DECO|saida[6]~4_combout\ $end
$var wire 1 C" \DECO|saida~5_combout\ $end
$var wire 1 D" \DECO|Equal2~0_combout\ $end
$var wire 1 E" \PC|DOUT\ [8] $end
$var wire 1 F" \PC|DOUT\ [7] $end
$var wire 1 G" \PC|DOUT\ [6] $end
$var wire 1 H" \PC|DOUT\ [5] $end
$var wire 1 I" \PC|DOUT\ [4] $end
$var wire 1 J" \PC|DOUT\ [3] $end
$var wire 1 K" \PC|DOUT\ [2] $end
$var wire 1 L" \PC|DOUT\ [1] $end
$var wire 1 M" \PC|DOUT\ [0] $end
$var wire 1 N" \REGA|DOUT\ [7] $end
$var wire 1 O" \REGA|DOUT\ [6] $end
$var wire 1 P" \REGA|DOUT\ [5] $end
$var wire 1 Q" \REGA|DOUT\ [4] $end
$var wire 1 R" \REGA|DOUT\ [3] $end
$var wire 1 S" \REGA|DOUT\ [2] $end
$var wire 1 T" \REGA|DOUT\ [1] $end
$var wire 1 U" \REGA|DOUT\ [0] $end
$var wire 1 V" \RAM|ALT_INV_process_0~0_combout\ $end
$var wire 1 W" \ROM1|ALT_INV_memROM~11_combout\ $end
$var wire 1 X" \REGA|ALT_INV_DOUT\ [7] $end
$var wire 1 Y" \REGA|ALT_INV_DOUT\ [6] $end
$var wire 1 Z" \REGA|ALT_INV_DOUT\ [5] $end
$var wire 1 [" \REGA|ALT_INV_DOUT\ [4] $end
$var wire 1 \" \REGA|ALT_INV_DOUT\ [3] $end
$var wire 1 ]" \REGA|ALT_INV_DOUT\ [2] $end
$var wire 1 ^" \REGA|ALT_INV_DOUT\ [1] $end
$var wire 1 _" \REGA|ALT_INV_DOUT\ [0] $end
$var wire 1 `" \DECO|ALT_INV_saida[3]~7_combout\ $end
$var wire 1 a" \FLAG1|ALT_INV_DOUT~3_combout\ $end
$var wire 1 b" \MUX1|ALT_INV_saida_MUX[3]~3_combout\ $end
$var wire 1 c" \RAM|ALT_INV_ram~164_combout\ $end
$var wire 1 d" \RAM|ALT_INV_ram~163_combout\ $end
$var wire 1 e" \RAM|ALT_INV_ram~28_q\ $end
$var wire 1 f" \RAM|ALT_INV_ram~162_combout\ $end
$var wire 1 g" \RAM|ALT_INV_ram~20_q\ $end
$var wire 1 h" \MUX1|ALT_INV_saida_MUX[2]~2_combout\ $end
$var wire 1 i" \RAM|ALT_INV_ram~161_combout\ $end
$var wire 1 j" \RAM|ALT_INV_ram~160_combout\ $end
$var wire 1 k" \RAM|ALT_INV_ram~27_q\ $end
$var wire 1 l" \RAM|ALT_INV_ram~19_q\ $end
$var wire 1 m" \FLAG1|ALT_INV_DOUT~2_combout\ $end
$var wire 1 n" \MUX1|ALT_INV_saida_MUX[1]~1_combout\ $end
$var wire 1 o" \RAM|ALT_INV_ram~159_combout\ $end
$var wire 1 p" \RAM|ALT_INV_ram~158_combout\ $end
$var wire 1 q" \RAM|ALT_INV_ram~26_q\ $end
$var wire 1 r" \RAM|ALT_INV_ram~157_combout\ $end
$var wire 1 s" \RAM|ALT_INV_ram~18_q\ $end
$var wire 1 t" \MUX1|ALT_INV_saida_MUX[0]~0_combout\ $end
$var wire 1 u" \RAM|ALT_INV_ram~156_combout\ $end
$var wire 1 v" \RAM|ALT_INV_ram~155_combout\ $end
$var wire 1 w" \RAM|ALT_INV_ram~25_q\ $end
$var wire 1 x" \RAM|ALT_INV_ram~17_q\ $end
$var wire 1 y" \DECO|ALT_INV_saida[5]~6_combout\ $end
$var wire 1 z" \FLAG1|ALT_INV_DOUT~1_combout\ $end
$var wire 1 {" \RAM|ALT_INV_ram~154_combout\ $end
$var wire 1 |" \RAM|ALT_INV_ram~153_combout\ $end
$var wire 1 }" \RAM|ALT_INV_ram~29_q\ $end
$var wire 1 ~" \RAM|ALT_INV_ram~21_q\ $end
$var wire 1 !# \RAM|ALT_INV_ram~152_combout\ $end
$var wire 1 "# \RAM|ALT_INV_ram~151_combout\ $end
$var wire 1 ## \RAM|ALT_INV_ram~30_q\ $end
$var wire 1 $# \RAM|ALT_INV_ram~150_combout\ $end
$var wire 1 %# \RAM|ALT_INV_ram~22_q\ $end
$var wire 1 &# \FLAG1|ALT_INV_DOUT~0_combout\ $end
$var wire 1 '# \ULA1|ALT_INV_saida[6]~1_combout\ $end
$var wire 1 (# \RAM|ALT_INV_ram~149_combout\ $end
$var wire 1 )# \RAM|ALT_INV_ram~148_combout\ $end
$var wire 1 *# \RAM|ALT_INV_ram~31_q\ $end
$var wire 1 +# \RAM|ALT_INV_ram~23_q\ $end
$var wire 1 ,# \ULA1|ALT_INV_saida[7]~0_combout\ $end
$var wire 1 -# \RAM|ALT_INV_ram~147_combout\ $end
$var wire 1 .# \RAM|ALT_INV_ram~146_combout\ $end
$var wire 1 /# \RAM|ALT_INV_ram~32_q\ $end
$var wire 1 0# \RAM|ALT_INV_ram~145_combout\ $end
$var wire 1 1# \RAM|ALT_INV_ram~24_q\ $end
$var wire 1 2# \ROM1|ALT_INV_memROM~9_combout\ $end
$var wire 1 3# \ROM1|ALT_INV_memROM~8_combout\ $end
$var wire 1 4# \ROM1|ALT_INV_memROM~7_combout\ $end
$var wire 1 5# \ROM1|ALT_INV_memROM~6_combout\ $end
$var wire 1 6# \FLAG1|ALT_INV_DOUT~q\ $end
$var wire 1 7# \ROM1|ALT_INV_memROM~5_combout\ $end
$var wire 1 8# \DECO|ALT_INV_saida[6]~4_combout\ $end
$var wire 1 9# \DECO|ALT_INV_saida[4]~2_combout\ $end
$var wire 1 :# \DECO|ALT_INV_saida~1_combout\ $end
$var wire 1 ;# \ROM1|ALT_INV_memROM~4_combout\ $end
$var wire 1 <# \ROM1|ALT_INV_memROM~3_combout\ $end
$var wire 1 =# \ROM1|ALT_INV_memROM~2_combout\ $end
$var wire 1 ># \ROM1|ALT_INV_memROM~1_combout\ $end
$var wire 1 ?# \ROM1|ALT_INV_memROM~0_combout\ $end
$var wire 1 @# \ULA1|ALT_INV_Add0~29_sumout\ $end
$var wire 1 A# \ULA1|ALT_INV_Add0~25_sumout\ $end
$var wire 1 B# \ULA1|ALT_INV_Add0~21_sumout\ $end
$var wire 1 C# \ULA1|ALT_INV_Add0~17_sumout\ $end
$var wire 1 D# \ULA1|ALT_INV_Add0~13_sumout\ $end
$var wire 1 E# \ULA1|ALT_INV_Add0~9_sumout\ $end
$var wire 1 F# \ULA1|ALT_INV_Add0~5_sumout\ $end
$var wire 1 G# \ULA1|ALT_INV_Add0~1_sumout\ $end
$var wire 1 H# \PC|ALT_INV_DOUT\ [8] $end
$var wire 1 I# \PC|ALT_INV_DOUT\ [7] $end
$var wire 1 J# \PC|ALT_INV_DOUT\ [6] $end
$var wire 1 K# \PC|ALT_INV_DOUT\ [5] $end
$var wire 1 L# \PC|ALT_INV_DOUT\ [4] $end
$var wire 1 M# \PC|ALT_INV_DOUT\ [3] $end
$var wire 1 N# \PC|ALT_INV_DOUT\ [2] $end
$var wire 1 O# \PC|ALT_INV_DOUT\ [1] $end
$var wire 1 P# \PC|ALT_INV_DOUT\ [0] $end
$upscope $end
$upscope $end
$enddefinitions $end
#0
$dumpvars
x!
0L
1M
xN
1O
1P
1Q
1R
1S
1T
x^
x"!
x#!
x$!
x%!
x&!
x'!
x(!
x)!
x*!
x+!
x,!
x-!
x.!
x/!
10!
11!
02!
03!
04!
05!
06!
07!
18!
09!
0:!
0;!
0<!
1=!
0>!
0?!
0@!
0A!
0B!
0C!
0D!
0E!
0F!
0G!
1H!
0I!
0J!
0K!
0L!
0M!
0N!
0O!
1P!
0Q!
0R!
0S!
0T!
0U!
0V!
0W!
0X!
1Y!
0Z!
0[!
0\!
0]!
0^!
0_!
0`!
1a!
0b!
0c!
0d!
0e!
0f!
0g!
0h!
0i!
1j!
0k!
0l!
0m!
0n!
0o!
0p!
1q!
0r!
0s!
0t!
0u!
0v!
0w!
0x!
1y!
0z!
0{!
0|!
0}!
0~!
0!"
1""
0#"
0$"
0%"
0&"
0'"
0("
1)"
0*"
0+"
1,"
0-"
0."
0/"
00"
01"
02"
03"
04"
15"
06"
07"
08"
09"
0:"
0;"
0<"
0="
0>"
0?"
0@"
0A"
1B"
0C"
1D"
1V"
1W"
1`"
0a"
1b"
1c"
1d"
1e"
1f"
1g"
1h"
1i"
1j"
1k"
1l"
1m"
1n"
1o"
1p"
1q"
1r"
1s"
1t"
1u"
1v"
1w"
1x"
1y"
1z"
1{"
1|"
1}"
1~"
1!#
1"#
1##
1$#
1%#
1&#
1'#
1(#
1)#
1*#
1+#
1,#
1-#
1.#
1/#
10#
11#
12#
13#
04#
15#
16#
17#
08#
19#
1:#
1;#
0<#
1=#
0>#
1?#
1@#
1A#
1B#
1C#
1D#
1E#
1F#
1G#
x"
x#
x$
1%
10
01
02
03
04
05
06
07
08
09
0:
0;
0<
0=
0>
0?
0@
0A
0&
0'
0(
0)
0*
0+
0,
0-
0.
0/
1U
0V
0W
0X
0Y
0Z
0[
0\
0]
x_
x`
xa
1b
xc
xd
xe
xf
xg
xh
xi
xj
xk
xl
0m
0n
0o
0p
0q
0r
0s
0t
0u
0v
0w
0x
0y
0z
0{
0|
0}
0~
0!!
0E"
0F"
0G"
0H"
0I"
0J"
0K"
0L"
0M"
0N"
0O"
0P"
0Q"
0R"
0S"
0T"
0U"
1X"
1Y"
1Z"
1["
1\"
1]"
1^"
1_"
1H#
1I#
1J#
1K#
1L#
1M#
1N#
1O#
1P#
xB
xC
xD
xE
xF
xG
xH
xI
xJ
xK
$end
#20000
0%
0b
00!
#40000
1%
1b
10!
1K"
0N#
08!
18"
1="
0W"
1<#
1s
1;!
1<!
1G!
0,"
0B"
0D"
1>"
1?
07#
18#
09#
0y"
1`!
1O!
0t"
0h"
0U
1Y
1X
1W
1Z!
0a!
1[!
0)"
1I!
0P!
1J!
14
13
00
0C#
1a"
0A#
12
1Q!
0Y!
1b!
0j!
0@#
0B#
1k!
0q!
0Z!
1A#
0D#
1r!
0y!
0E#
1z!
0""
0F#
1#"
0G#
#60000
0%
0b
00!
#80000
1%
1b
10!
1U"
1S"
1M"
0P#
0]"
0_"
0I!
1P!
1Z!
01!
12!
17!
0=!
1?!
13"
0="
1W"
02#
0V"
14#
0=#
0A#
1C#
1u
13!
0Q!
1Y!
0;!
0<!
0G!
1@"
1B"
0`!
1C!
14"
0>"
1B#
1A
0Z!
1a!
17#
1h"
08#
19#
1y"
1A#
0J!
1c!
1l!
1s!
1{!
1$"
1'"
1Z!
1@!
0C!
0O!
0b!
1j!
0[!
1@#
1t"
0A#
0z"
0,#
0'#
1]
0Y
0X
0k!
1q!
0W
1[!
1I!
0c!
1D#
18
04
03
0r!
1y!
0C#
02
0l!
1E#
1J!
0z!
1""
0s!
0'"
1F#
0#"
1z"
0{!
1G#
1'#
0$"
1,#
#100000
0%
0b
00!
#120000
1%
1b
10!
1K!
1\!
1L"
0M"
1P#
0O#
0l"
0x"
1M!
1^!
03!
17"
11!
02!
07!
19!
0?!
1?"
0?#
1V"
0;#
1=#
0j"
0v"
0u
1t
13!
07"
08"
19"
1N!
1_!
0@!
1%"
0@"
1A"
0A
1@
1:"
18"
09"
0:#
0i"
0u"
1O!
1`!
0:"
0h"
0t"
1\
0]
1[
0I!
0Z!
08
17
16
1A#
1C#
0J!
1("
0[!
1)"
0a"
0m"
1*"
#140000
0%
0b
00!
#160000
1%
1b
10!
1+"
1M"
0P#
06#
01!
12!
18!
09!
03"
1="
0?"
1?#
0W"
12#
1;#
0<#
1u
03!
17"
04"
1>"
0%"
1,"
0A"
1D"
1A
08"
19"
1:#
07#
0M!
0^!
1&"
0("
1:"
1m"
0&#
1j"
1v"
1U
0\
0[
0N!
0_!
07
06
10
1i"
1u"
0O!
0`!
1h"
1t"
1I!
1Z!
0A#
0C#
1J!
1[!
0)"
1a"
#180000
0%
0b
00!
#200000
1%
1b
10!
0L"
0K"
1N#
1O#
13!
07"
17!
1>!
18"
09"
03#
0=#
0s
0t
0:"
08"
1C"
0D"
0@
0?
0U
1V
11
00
#220000
0%
0b
00!
#240000
1%
1b
10!
1J"
0M#
07!
08!
1=!
0>!
1:"
0="
1W"
13#
04#
1<#
1=#
1r
1;!
1<!
1G!
0,"
0B"
0C"
0>"
1>
17#
18#
09#
0y"
1`!
0J!
0[!
1)"
1M!
1^!
0j"
0v"
0a"
0h"
0V
1Y
1X
1W
0Z!
1[!
0)"
14
13
01
1a"
1A#
12
#260000
0%
0b
00!
#280000
1%
1b
10!
0U"
1L"
0M"
1P#
0O#
1_"
0I!
03!
17"
11!
02!
19!
0=!
13"
1?"
0?#
02#
14#
0;#
1C#
0u
1t
13!
07"
18"
1N!
1_!
0`!
14"
0;!
0<!
0G!
1%"
1A"
1B"
0A
1@
08"
08#
0:#
19#
1y"
1h"
0i"
0u"
1Z!
1O!
1`!
0[!
1)"
0&"
1("
0m"
1&#
0a"
0h"
0t"
0A#
1\
1[
0Y
0X
0W
1I!
0P!
0Z!
1[!
0)"
17
16
04
03
1a"
1A#
0C#
02
1Q!
0Y!
1J!
0("
0[!
1)"
0*"
0B#
1Z!
0a!
0a"
1m"
1R!
0A#
1b!
0j!
1[!
0)"
0@#
1k!
0q!
1a"
1c!
0D#
1r!
0y!
1l!
1'"
0E#
1z!
0""
0z"
1s!
0F#
1#"
1{!
0G#
0'#
1$"
0,#
#300000
0%
0b
00!
#320000
1%
1b
10!
0+"
1M"
0P#
16#
01!
12!
17!
18!
09!
03"
16"
1="
0?"
1?#
0W"
05#
12#
1;#
0<#
0=#
1u
03!
17"
04"
0M!
0^!
1>"
0%"
0A"
1C"
1A
18"
1:#
07#
1j"
1v"
0N!
0_!
1i"
1u"
1V
0\
0[
0O!
0`!
07
06
11
1h"
1t"
0I!
1P!
0Z!
1a!
1A#
1C#
0b!
1j!
0Q!
1Y!
0J!
0[!
1B#
1@#
1Z!
0k!
1q!
0c!
1)"
0R!
1D#
0A#
0r!
1y!
0a"
1[!
0)"
0l!
1E#
0z!
1""
1a"
0s!
0'"
1F#
0#"
1z"
0{!
1G#
1'#
0$"
1,#
#340000
0%
0b
00!
#360000
1%
1b
10!
0L"
1K"
0M"
1P#
0N#
1O#
13!
07"
08"
19"
11!
02!
07!
1=!
1>!
06"
0="
1W"
15#
03#
04#
1=#
0u
1s
0t
03!
0:"
1;"
18"
09"
1,"
0C"
1D"
0>"
0A
0@
1?
1:"
0;"
1<"
17#
1M!
1^!
0<"
0j"
0v"
1U
0V
01
10
#380000
0%
0b
00!
#400000
1%
1b
10!
#420000
0%
0b
00!
#440000
1%
1b
10!
#460000
0%
0b
00!
#480000
1%
1b
10!
#500000
0%
0b
00!
#520000
1%
1b
10!
#540000
0%
0b
00!
#560000
1%
1b
10!
#580000
0%
0b
00!
#600000
1%
1b
10!
#620000
0%
0b
00!
#640000
1%
1b
10!
#660000
0%
0b
00!
#680000
1%
1b
10!
#700000
0%
0b
00!
#720000
1%
1b
10!
#740000
0%
0b
00!
#760000
1%
1b
10!
#780000
0%
0b
00!
#800000
1%
1b
10!
#820000
0%
0b
00!
#840000
1%
1b
10!
#860000
0%
0b
00!
#880000
1%
1b
10!
#900000
0%
0b
00!
#920000
1%
1b
10!
#940000
0%
0b
00!
#960000
1%
1b
10!
#980000
0%
0b
00!
