Aulas/Aula 4/simulation/qsim/Aula4.msim.vcd
$comment
	File created using the following command:
		vcd file Aula4.msim.vcd -direction
$end
$date
	Fri Mar 10 11:39:57 2023
$end
$version
	ModelSim Version 2020.1
$end
$timescale
	1ps
$end

$scope module aula4_vhd_vec_tst $end
$var wire 1 ! CLOCK_50 $end
$var wire 1 " KEY [3] $end
$var wire 1 # KEY [2] $end
$var wire 1 $ KEY [1] $end
$var wire 1 % KEY [0] $end
$var wire 1 & LEDR [9] $end
$var wire 1 ' LEDR [8] $end
$var wire 1 ( LEDR [7] $end
$var wire 1 ) LEDR [6] $end
$var wire 1 * LEDR [5] $end
$var wire 1 + LEDR [4] $end
$var wire 1 , LEDR [3] $end
$var wire 1 - LEDR [2] $end
$var wire 1 . LEDR [1] $end
$var wire 1 / LEDR [0] $end
$var wire 1 0 PC_OUT [2] $end
$var wire 1 1 PC_OUT [1] $end
$var wire 1 2 PC_OUT [0] $end
$var wire 1 3 SW [9] $end
$var wire 1 4 SW [8] $end
$var wire 1 5 SW [7] $end
$var wire 1 6 SW [6] $end
$var wire 1 7 SW [5] $end
$var wire 1 8 SW [4] $end
$var wire 1 9 SW [3] $end
$var wire 1 : SW [2] $end
$var wire 1 ; SW [1] $end
$var wire 1 < SW [0] $end
$var wire 1 = testeOut [7] $end
$var wire 1 > testeOut [6] $end
$var wire 1 ? testeOut [5] $end
$var wire 1 @ testeOut [4] $end
$var wire 1 A testeOut [3] $end
$var wire 1 B testeOut [2] $end
$var wire 1 C testeOut [1] $end
$var wire 1 D testeOut [0] $end

$scope module i1 $end
$var wire 1 E gnd $end
$var wire 1 F vcc $end
$var wire 1 G unknown $end
$var wire 1 H devoe $end
$var wire 1 I devclrn $end
$var wire 1 J devpor $end
$var wire 1 K ww_devoe $end
$var wire 1 L ww_devclrn $end
$var wire 1 M ww_devpor $end
$var wire 1 N ww_testeOut [7] $end
$var wire 1 O ww_testeOut [6] $end
$var wire 1 P ww_testeOut [5] $end
$var wire 1 Q ww_testeOut [4] $end
$var wire 1 R ww_testeOut [3] $end
$var wire 1 S ww_testeOut [2] $end
$var wire 1 T ww_testeOut [1] $end
$var wire 1 U ww_testeOut [0] $end
$var wire 1 V ww_CLOCK_50 $end
$var wire 1 W ww_KEY [3] $end
$var wire 1 X ww_KEY [2] $end
$var wire 1 Y ww_KEY [1] $end
$var wire 1 Z ww_KEY [0] $end
$var wire 1 [ ww_SW [9] $end
$var wire 1 \ ww_SW [8] $end
$var wire 1 ] ww_SW [7] $end
$var wire 1 ^ ww_SW [6] $end
$var wire 1 _ ww_SW [5] $end
$var wire 1 ` ww_SW [4] $end
$var wire 1 a ww_SW [3] $end
$var wire 1 b ww_SW [2] $end
$var wire 1 c ww_SW [1] $end
$var wire 1 d ww_SW [0] $end
$var wire 1 e ww_PC_OUT [2] $end
$var wire 1 f ww_PC_OUT [1] $end
$var wire 1 g ww_PC_OUT [0] $end
$var wire 1 h ww_LEDR [9] $end
$var wire 1 i ww_LEDR [8] $end
$var wire 1 j ww_LEDR [7] $end
$var wire 1 k ww_LEDR [6] $end
$var wire 1 l ww_LEDR [5] $end
$var wire 1 m ww_LEDR [4] $end
$var wire 1 n ww_LEDR [3] $end
$var wire 1 o ww_LEDR [2] $end
$var wire 1 p ww_LEDR [1] $end
$var wire 1 q ww_LEDR [0] $end
$var wire 1 r \CLOCK_50~input_o\ $end
$var wire 1 s \KEY[1]~input_o\ $end
$var wire 1 t \KEY[2]~input_o\ $end
$var wire 1 u \KEY[3]~input_o\ $end
$var wire 1 v \SW[0]~input_o\ $end
$var wire 1 w \SW[1]~input_o\ $end
$var wire 1 x \SW[2]~input_o\ $end
$var wire 1 y \SW[3]~input_o\ $end
$var wire 1 z \SW[4]~input_o\ $end
$var wire 1 { \SW[5]~input_o\ $end
$var wire 1 | \SW[6]~input_o\ $end
$var wire 1 } \SW[7]~input_o\ $end
$var wire 1 ~ \SW[8]~input_o\ $end
$var wire 1 !! \SW[9]~input_o\ $end
$var wire 1 "! \testeOut[0]~output_o\ $end
$var wire 1 #! \testeOut[1]~output_o\ $end
$var wire 1 $! \testeOut[2]~output_o\ $end
$var wire 1 %! \testeOut[3]~output_o\ $end
$var wire 1 &! \testeOut[4]~output_o\ $end
$var wire 1 '! \testeOut[5]~output_o\ $end
$var wire 1 (! \testeOut[6]~output_o\ $end
$var wire 1 )! \testeOut[7]~output_o\ $end
$var wire 1 *! \PC_OUT[0]~output_o\ $end
$var wire 1 +! \PC_OUT[1]~output_o\ $end
$var wire 1 ,! \PC_OUT[2]~output_o\ $end
$var wire 1 -! \LEDR[0]~output_o\ $end
$var wire 1 .! \LEDR[1]~output_o\ $end
$var wire 1 /! \LEDR[2]~output_o\ $end
$var wire 1 0! \LEDR[3]~output_o\ $end
$var wire 1 1! \LEDR[4]~output_o\ $end
$var wire 1 2! \LEDR[5]~output_o\ $end
$var wire 1 3! \LEDR[6]~output_o\ $end
$var wire 1 4! \LEDR[7]~output_o\ $end
$var wire 1 5! \LEDR[8]~output_o\ $end
$var wire 1 6! \LEDR[9]~output_o\ $end
$var wire 1 7! \KEY[0]~input_o\ $end
$var wire 1 8! \PC|DOUT[0]~2_combout\ $end
$var wire 1 9! \PC|DOUT[1]~0_combout\ $end
$var wire 1 :! \PC|DOUT[2]~1_combout\ $end
$var wire 1 ;! \RAM|ram~89_combout\ $end
$var wire 1 <! \RAM|ram~17_q\ $end
$var wire 1 =! \ROM1|memROM~3_combout\ $end
$var wire 1 >! \RAM|ram~25_q\ $end
$var wire 1 ?! \RAM|ram~81_combout\ $end
$var wire 1 @! \ULA1|Add0~34_cout\ $end
$var wire 1 A! \ULA1|Add0~1_sumout\ $end
$var wire 1 B! \ULA1|saida[0]~0_combout\ $end
$var wire 1 C! \DECO|saida~0_combout\ $end
$var wire 1 D! \ROM1|memROM~0_combout\ $end
$var wire 1 E! \DECO|Equal1~0_combout\ $end
$var wire 1 F! \ROM1|memROM~1_combout\ $end
$var wire 1 G! \RAM|ram~18_q\ $end
$var wire 1 H! \RAM|ram~26_q\ $end
$var wire 1 I! \RAM|ram~82_combout\ $end
$var wire 1 J! \ULA1|Add0~2\ $end
$var wire 1 K! \ULA1|Add0~5_sumout\ $end
$var wire 1 L! \ULA1|saida[1]~1_combout\ $end
$var wire 1 M! \ROM1|memROM~2_combout\ $end
$var wire 1 N! \RAM|ram~19_q\ $end
$var wire 1 O! \RAM|ram~27_q\ $end
$var wire 1 P! \RAM|ram~83_combout\ $end
$var wire 1 Q! \ULA1|Add0~6\ $end
$var wire 1 R! \ULA1|Add0~9_sumout\ $end
$var wire 1 S! \ULA1|saida[2]~2_combout\ $end
$var wire 1 T! \RAM|ram~20_q\ $end
$var wire 1 U! \RAM|ram~28_q\ $end
$var wire 1 V! \RAM|ram~84_combout\ $end
$var wire 1 W! \ULA1|Add0~10\ $end
$var wire 1 X! \ULA1|Add0~13_sumout\ $end
$var wire 1 Y! \ULA1|saida[3]~3_combout\ $end
$var wire 1 Z! \RAM|ram~21_q\ $end
$var wire 1 [! \RAM|ram~29_q\ $end
$var wire 1 \! \RAM|ram~85_combout\ $end
$var wire 1 ]! \ULA1|Add0~14\ $end
$var wire 1 ^! \ULA1|Add0~17_sumout\ $end
$var wire 1 _! \ULA1|saida[4]~4_combout\ $end
$var wire 1 `! \RAM|ram~22_q\ $end
$var wire 1 a! \RAM|ram~30_q\ $end
$var wire 1 b! \RAM|ram~86_combout\ $end
$var wire 1 c! \ULA1|Add0~18\ $end
$var wire 1 d! \ULA1|Add0~21_sumout\ $end
$var wire 1 e! \ULA1|saida[5]~5_combout\ $end
$var wire 1 f! \RAM|ram~23_q\ $end
$var wire 1 g! \RAM|ram~31_q\ $end
$var wire 1 h! \RAM|ram~87_combout\ $end
$var wire 1 i! \ULA1|Add0~22\ $end
$var wire 1 j! \ULA1|Add0~25_sumout\ $end
$var wire 1 k! \ULA1|saida[6]~6_combout\ $end
$var wire 1 l! \RAM|ram~24_q\ $end
$var wire 1 m! \RAM|ram~32_q\ $end
$var wire 1 n! \RAM|ram~88_combout\ $end
$var wire 1 o! \ULA1|Add0~26\ $end
$var wire 1 p! \ULA1|Add0~29_sumout\ $end
$var wire 1 q! \ULA1|saida[7]~7_combout\ $end
$var wire 1 r! \REGA|DOUT\ [7] $end
$var wire 1 s! \REGA|DOUT\ [6] $end
$var wire 1 t! \REGA|DOUT\ [5] $end
$var wire 1 u! \REGA|DOUT\ [4] $end
$var wire 1 v! \REGA|DOUT\ [3] $end
$var wire 1 w! \REGA|DOUT\ [2] $end
$var wire 1 x! \REGA|DOUT\ [1] $end
$var wire 1 y! \REGA|DOUT\ [0] $end
$var wire 1 z! \PC|DOUT\ [2] $end
$var wire 1 {! \PC|DOUT\ [1] $end
$var wire 1 |! \PC|DOUT\ [0] $end
$var wire 1 }! \RAM|ALT_INV_ram~88_combout\ $end
$var wire 1 ~! \RAM|ALT_INV_ram~32_q\ $end
$var wire 1 !" \RAM|ALT_INV_ram~24_q\ $end
$var wire 1 "" \RAM|ALT_INV_ram~87_combout\ $end
$var wire 1 #" \RAM|ALT_INV_ram~31_q\ $end
$var wire 1 $" \RAM|ALT_INV_ram~23_q\ $end
$var wire 1 %" \RAM|ALT_INV_ram~86_combout\ $end
$var wire 1 &" \RAM|ALT_INV_ram~30_q\ $end
$var wire 1 '" \RAM|ALT_INV_ram~22_q\ $end
$var wire 1 (" \RAM|ALT_INV_ram~85_combout\ $end
$var wire 1 )" \RAM|ALT_INV_ram~29_q\ $end
$var wire 1 *" \RAM|ALT_INV_ram~21_q\ $end
$var wire 1 +" \RAM|ALT_INV_ram~84_combout\ $end
$var wire 1 ," \RAM|ALT_INV_ram~28_q\ $end
$var wire 1 -" \RAM|ALT_INV_ram~20_q\ $end
$var wire 1 ." \RAM|ALT_INV_ram~83_combout\ $end
$var wire 1 /" \RAM|ALT_INV_ram~27_q\ $end
$var wire 1 0" \RAM|ALT_INV_ram~19_q\ $end
$var wire 1 1" \ROM1|ALT_INV_memROM~2_combout\ $end
$var wire 1 2" \RAM|ALT_INV_ram~82_combout\ $end
$var wire 1 3" \RAM|ALT_INV_ram~26_q\ $end
$var wire 1 4" \RAM|ALT_INV_ram~18_q\ $end
$var wire 1 5" \ROM1|ALT_INV_memROM~1_combout\ $end
$var wire 1 6" \DECO|ALT_INV_Equal1~0_combout\ $end
$var wire 1 7" \RAM|ALT_INV_ram~81_combout\ $end
$var wire 1 8" \RAM|ALT_INV_ram~25_q\ $end
$var wire 1 9" \RAM|ALT_INV_ram~17_q\ $end
$var wire 1 :" \ROM1|ALT_INV_memROM~0_combout\ $end
$var wire 1 ;" \PC|ALT_INV_DOUT\ [2] $end
$var wire 1 <" \PC|ALT_INV_DOUT\ [1] $end
$var wire 1 =" \PC|ALT_INV_DOUT\ [0] $end
$var wire 1 >" \REGA|ALT_INV_DOUT\ [7] $end
$var wire 1 ?" \REGA|ALT_INV_DOUT\ [6] $end
$var wire 1 @" \REGA|ALT_INV_DOUT\ [5] $end
$var wire 1 A" \REGA|ALT_INV_DOUT\ [4] $end
$var wire 1 B" \REGA|ALT_INV_DOUT\ [3] $end
$var wire 1 C" \REGA|ALT_INV_DOUT\ [2] $end
$var wire 1 D" \REGA|ALT_INV_DOUT\ [1] $end
$var wire 1 E" \REGA|ALT_INV_DOUT\ [0] $end
$var wire 1 F" \ULA1|ALT_INV_Add0~29_sumout\ $end
$var wire 1 G" \ULA1|ALT_INV_Add0~25_sumout\ $end
$var wire 1 H" \ULA1|ALT_INV_Add0~21_sumout\ $end
$var wire 1 I" \ULA1|ALT_INV_Add0~17_sumout\ $end
$var wire 1 J" \ULA1|ALT_INV_Add0~13_sumout\ $end
$var wire 1 K" \ULA1|ALT_INV_Add0~9_sumout\ $end
$var wire 1 L" \ULA1|ALT_INV_Add0~5_sumout\ $end
$var wire 1 M" \ULA1|ALT_INV_Add0~1_sumout\ $end
$upscope $end
$upscope $end
$enddefinitions $end
#0
$dumpvars
x!
0E
1F
xG
1H
1I
1J
1K
1L
1M
xV
xr
xs
xt
xu
xv
xw
xx
xy
xz
x{
x|
x}
x~
x!!
0"!
0#!
0$!
0%!
0&!
0'!
0(!
0)!
0*!
0+!
0,!
0-!
0.!
0/!
00!
01!
02!
03!
04!
05!
06!
17!
18!
09!
0:!
0;!
0<!
0=!
0>!
0?!
1@!
0A!
0B!
1C!
1D!
0E!
0F!
0G!
0H!
0I!
1J!
0K!
0L!
1M!
0N!
0O!
0P!
1Q!
1R!
1S!
0T!
0U!
0V!
0W!
1X!
0Y!
0Z!
0[!
0\!
0]!
1^!
0_!
0`!
0a!
0b!
0c!
1d!
0e!
0f!
0g!
0h!
0i!
1j!
0k!
0l!
0m!
0n!
0o!
1p!
0q!
1}!
1~!
1!"
1""
1#"
1$"
1%"
1&"
1'"
1("
1)"
1*"
1+"
1,"
1-"
1."
1/"
10"
01"
12"
13"
14"
15"
16"
17"
18"
19"
0:"
0F"
0G"
0H"
0I"
0J"
0K"
1L"
1M"
x"
x#
x$
1%
0N
0O
0P
0Q
0R
0S
0T
0U
xW
xX
xY
1Z
x[
x\
x]
x^
x_
x`
xa
xb
xc
xd
0e
0f
0g
0h
0i
0j
0k
0l
0m
0n
0o
0p
0q
0r!
0s!
0t!
0u!
0v!
0w!
0x!
0y!
0z!
0{!
0|!
1;"
1<"
1="
1>"
1?"
1@"
1A"
1B"
1C"
1D"
1E"
0&
0'
0(
0)
0*
0+
0,
0-
0.
0/
00
01
02
x3
x4
x5
x6
x7
x8
x9
x:
x;
x<
0=
0>
0?
0@
0A
0B
0C
0D
$end
#40000
0%
0Z
07!
#60000
1%
1Z
17!
1|!
1w!
0C"
0="
08!
19!
1=!
0C!
0D!
0M!
0R!
1W!
1K"
11"
1:"
1$!
1*!
0X!
1]!
1Y!
1_!
1e!
1k!
1q!
1R!
0S!
1J"
1S
1g
0^!
1c!
0K"
1B
12
0Y!
1I"
1S!
0d!
1i!
0_!
1H"
0j!
1o!
0e!
1G"
0p!
0k!
1F"
0q!
#80000
0%
0Z
07!
#100000
1%
1Z
17!
0|!
1{!
1O!
0/"
0<"
1="
18!
1D!
0=!
1A!
0J!
1B!
1C!
1F!
05"
0M"
0:"
1+!
0*!
1K!
0Q!
1L!
0S!
0K!
0L"
1f
0g
0R!
1L"
02
11
1K"
#120000
0%
0Z
07!
#140000
1%
1Z
17!
1|!
1y!
1x!
0w!
1C"
0D"
0E"
0="
08!
09!
1:!
1;!
0C!
0D!
0F!
1J!
1K!
1R!
0W!
0K"
0L"
15"
1:"
0$!
1#!
1"!
1*!
1X!
0]!
0K!
1Q!
1K!
1S!
1L"
0J"
0S
1T
1U
1g
0R!
1W!
1^!
0c!
0L"
1D
1C
0B
12
1Y!
0L!
0I"
1K"
1L!
1d!
0i!
0X!
1]!
0S!
1_!
1J"
0H"
0^!
1c!
1j!
0o!
1e!
0Y!
0G"
1I"
1p!
0d!
1i!
0_!
1k!
1H"
0F"
0j!
1o!
1q!
0e!
1G"
0p!
0k!
1F"
0q!
#160000
0%
0Z
07!
#180000
1%
1Z
17!
0|!
0{!
1z!
1<!
1G!
04"
09"
0;"
1<"
1="
18!
0;!
0@!
0A!
1C!
1E!
1X!
0]!
1^!
0c!
1d!
0i!
1j!
0o!
1p!
1?!
1I!
02"
07"
0F"
0G"
0H"
0I"
0J"
06"
1M"
1,!
0+!
0*!
0p!
0j!
0d!
0^!
1A!
0J!
0B!
1R!
0W!
1Y!
1_!
1e!
1k!
1q!
0A!
1J!
0M"
1I"
1H"
1G"
1F"
1e
0f
0g
0K!
1M"
0K"
02
01
10
0q!
0k!
0e!
0_!
1B!
1K!
0X!
1L"
1S!
0B!
1J"
0L"
0L!
1L!
0Y!
#200000
0%
0Z
07!
#220000
1%
1Z
17!
1|!
0y!
1w!
0C"
1E"
0="
08!
19!
1A!
0J!
0R!
1W!
1K"
0M"
1$!
0"!
1*!
1X!
0K!
1B!
0S!
1L"
0J"
1S
0U
1g
0D
1B
12
1Y!
0L!
#240000
0%
0Z
07!
#260000
1%
1Z
17!
0|!
1{!
1y!
0x!
0w!
1v!
0B"
1C"
1D"
0E"
0<"
1="
18!
0?!
1@!
0E!
0I!
1P!
1^!
1d!
1j!
1p!
1K!
0Q!
1R!
0W!
1]!
0K"
0L"
0F"
0G"
0H"
0I"
0."
12"
16"
17"
1%!
0$!
0#!
1"!
1+!
0*!
0^!
1c!
0X!
0R!
0A!
1J!
1A!
1_!
1e!
1k!
1q!
1L!
1S!
1M"
1K"
1J"
1I"
1R
0S
0T
1U
1f
0g
0K!
1Q!
0d!
1i!
0M"
1D
0C
0B
1A
02
11
0_!
0Y!
0S!
0B!
1H"
1L"
1B!
0j!
1o!
1R!
0L!
0e!
0K"
1G"
0p!
0k!
1S!
1F"
0q!
#280000
0%
0Z
07!
#300000
1%
1Z
17!
1|!
1w!
0v!
1B"
0C"
0="
08!
09!
0:!
1?!
0C!
1I!
0P!
0R!
1W!
1X!
0]!
0J"
1K"
1."
02"
07"
0%!
1$!
1*!
1^!
0c!
0X!
1]!
0A!
1K!
0Q!
1R!
0S!
1Y!
1J"
0I"
0R
1S
1g
0^!
1c!
1d!
0i!
0K"
0L"
1M"
1B
0A
12
1_!
0Y!
0R!
0H"
1I"
0B!
1L!
1S!
1j!
0o!
0d!
1i!
1K"
0_!
1e!
1H"
0G"
0S!
0j!
1o!
1p!
1k!
0e!
0F"
1G"
0p!
0k!
1q!
1F"
0q!
#320000
0%
0Z
07!
#340000
1%
1Z
17!
0|!
0{!
0z!
1;"
1<"
1="
18!
0?!
1A!
1C!
1D!
0I!
1M!
01"
12"
0:"
0M"
17"
0,!
0+!
0*!
0L!
1S!
0K!
1Q!
1R!
0W!
0e
0f
0g
0K"
1L"
02
01
00
1X!
0]!
0R!
1W!
1K"
0J"
0X!
1]!
1^!
0c!
0I"
1J"
1d!
0i!
0^!
1c!
1I"
0H"
0d!
1i!
1j!
0o!
0G"
1H"
1p!
0j!
1o!
1G"
0F"
0p!
1F"
#360000
0%
0Z
07!
#380000
1%
1Z
17!
1|!
0y!
1E"
0="
08!
19!
1=!
1B!
0C!
0D!
0M!
1P!
0A!
1M"
0."
11"
1:"
0"!
1*!
0S!
0B!
0U
1g
0D
12
#400000
0%
0Z
07!
#420000
1%
1Z
17!
0|!
1{!
0<"
1="
18!
1D!
0=!
1A!
0J!
1B!
1C!
1F!
0P!
1."
05"
0M"
0:"
1+!
0*!
1K!
0Q!
1L!
0K!
1R!
0L"
1f
0g
0R!
0K"
1L"
02
11
1K"
#440000
0%
0Z
07!
#460000
1%
1Z
17!
1|!
1y!
1x!
0w!
1C"
0D"
0E"
0="
08!
09!
1:!
1;!
1?!
0C!
0D!
0F!
1I!
1J!
1K!
1R!
0W!
0K"
0L"
02"
15"
1:"
07"
0$!
1#!
1"!
1*!
1X!
0]!
0K!
1Q!
0A!
1S!
1L"
0J"
0S
1T
1U
1g
0R!
1W!
1^!
0c!
1M"
1D
1C
0B
12
1Y!
0L!
0I"
1K"
0B!
1d!
0i!
0X!
1]!
0S!
1_!
1J"
0H"
0^!
1c!
1j!
0o!
1e!
0Y!
0G"
1I"
1p!
0d!
1i!
0_!
1k!
1H"
0F"
0j!
1o!
1q!
0e!
1G"
0p!
0k!
1F"
0q!
#480000
0%
0Z
07!
#500000
1%
1Z
17!
0|!
0{!
1z!
0;"
1<"
1="
18!
0;!
0@!
1A!
1C!
1E!
1X!
0]!
1^!
0c!
1d!
0i!
1j!
0o!
1p!
0F"
0G"
0H"
0I"
0J"
06"
0M"
1,!
0+!
0*!
0p!
0j!
0d!
0^!
0A!
1B!
1K!
1R!
0W!
1Y!
1_!
1e!
1k!
1q!
1M"
1I"
1H"
1G"
1F"
1e
0f
0g
0K"
0L"
02
01
10
0q!
0k!
0e!
0_!
0B!
0X!
1L!
1S!
1J"
0Y!
#520000
0%
0Z
07!
#540000
1%
1Z
17!
1|!
0y!
1w!
0C"
1E"
0="
08!
19!
1A!
0J!
0R!
1W!
1K"
0M"
1$!
0"!
1*!
1X!
0K!
1B!
0S!
1L"
0J"
1S
0U
1g
0D
1B
12
1Y!
0L!
#560000
0%
0Z
07!
#580000
1%
1Z
17!
0|!
1{!
1y!
0x!
0w!
1v!
0B"
1C"
1D"
0E"
0<"
1="
18!
0?!
1@!
0E!
0I!
1P!
1^!
1d!
1j!
1p!
1K!
0Q!
1R!
0W!
1]!
0K"
0L"
0F"
0G"
0H"
0I"
0."
12"
16"
17"
1%!
0$!
0#!
1"!
1+!
0*!
0^!
1c!
0X!
0R!
0A!
1J!
1A!
1_!
1e!
1k!
1q!
1L!
1S!
1M"
1K"
1J"
1I"
1R
0S
0T
1U
1f
0g
0K!
1Q!
0d!
1i!
0M"
1D
0C
0B
1A
02
11
0_!
0Y!
0S!
0B!
1H"
1L"
1B!
0j!
1o!
1R!
0L!
0e!
0K"
1G"
0p!
0k!
1S!
1F"
0q!
#600000
0%
0Z
07!
#620000
1%
1Z
17!
1|!
1w!
0v!
1B"
0C"
0="
08!
09!
0:!
1?!
0C!
1I!
0P!
0R!
1W!
1X!
0]!
0J"
1K"
1."
02"
07"
0%!
1$!
1*!
1^!
0c!
0X!
1]!
0A!
1K!
0Q!
1R!
0S!
1Y!
1J"
0I"
0R
1S
1g
0^!
1c!
1d!
0i!
0K"
0L"
1M"
1B
0A
12
1_!
0Y!
0R!
0H"
1I"
0B!
1L!
1S!
1j!
0o!
0d!
1i!
1K"
0_!
1e!
1H"
0G"
0S!
0j!
1o!
1p!
1k!
0e!
0F"
1G"
0p!
0k!
1q!
1F"
0q!
#640000
0%
0Z
07!
#660000
1%
1Z
17!
0|!
0{!
0z!
1;"
1<"
1="
18!
0?!
1A!
1C!
1D!
0I!
1M!
01"
12"
0:"
0M"
17"
0,!
0+!
0*!
0L!
1S!
0K!
1Q!
1R!
0W!
0e
0f
0g
0K"
1L"
02
01
00
1X!
0]!
0R!
1W!
1K"
0J"
0X!
1]!
1^!
0c!
0I"
1J"
1d!
0i!
0^!
1c!
1I"
0H"
0d!
1i!
1j!
0o!
0G"
1H"
1p!
0j!
1o!
1G"
0F"
0p!
1F"
#680000
0%
0Z
07!
#700000
1%
1Z
17!
1|!
0y!
1E"
0="
08!
19!
1=!
1B!
0C!
0D!
0M!
1P!
0A!
1M"
0."
11"
1:"
0"!
1*!
0S!
0B!
0U
1g
0D
12
#720000
0%
0Z
07!
#740000
1%
1Z
17!
0|!
1{!
0<"
1="
18!
1D!
0=!
1A!
0J!
1B!
1C!
1F!
0P!
1."
05"
0M"
0:"
1+!
0*!
1K!
0Q!
1L!
0K!
1R!
0L"
1f
0g
0R!
0K"
1L"
02
11
1K"
#760000
0%
0Z
07!
#780000
1%
1Z
17!
1|!
1y!
1x!
0w!
1C"
0D"
0E"
0="
08!
09!
1:!
1;!
1?!
0C!
0D!
0F!
1I!
1J!
1K!
1R!
0W!
0K"
0L"
02"
15"
1:"
07"
0$!
1#!
1"!
1*!
1X!
0]!
0K!
1Q!
0A!
1S!
1L"
0J"
0S
1T
1U
1g
0R!
1W!
1^!
0c!
1M"
1D
1C
0B
12
1Y!
0L!
0I"
1K"
0B!
1d!
0i!
0X!
1]!
0S!
1_!
1J"
0H"
0^!
1c!
1j!
0o!
1e!
0Y!
0G"
1I"
1p!
0d!
1i!
0_!
1k!
1H"
0F"
0j!
1o!
1q!
0e!
1G"
0p!
0k!
1F"
0q!
#800000
0%
0Z
07!
#820000
1%
1Z
17!
0|!
0{!
1z!
0;"
1<"
1="
18!
0;!
0@!
1A!
1C!
1E!
1X!
0]!
1^!
0c!
1d!
0i!
1j!
0o!
1p!
0F"
0G"
0H"
0I"
0J"
06"
0M"
1,!
0+!
0*!
0p!
0j!
0d!
0^!
0A!
1B!
1K!
1R!
0W!
1Y!
1_!
1e!
1k!
1q!
1M"
1I"
1H"
1G"
1F"
1e
0f
0g
0K"
0L"
02
01
10
0q!
0k!
0e!
0_!
0B!
0X!
1L!
1S!
1J"
0Y!
#840000
0%
0Z
07!
#860000
1%
1Z
17!
1|!
0y!
1w!
0C"
1E"
0="
08!
19!
1A!
0J!
0R!
1W!
1K"
0M"
1$!
0"!
1*!
1X!
0K!
1B!
0S!
1L"
0J"
1S
0U
1g
0D
1B
12
1Y!
0L!
#880000
0%
0Z
07!
#900000
1%
1Z
17!
0|!
1{!
1y!
0x!
0w!
1v!
0B"
1C"
1D"
0E"
0<"
1="
18!
0?!
1@!
0E!
0I!
1P!
1^!
1d!
1j!
1p!
1K!
0Q!
1R!
0W!
1]!
0K"
0L"
0F"
0G"
0H"
0I"
0."
12"
16"
17"
1%!
0$!
0#!
1"!
1+!
0*!
0^!
1c!
0X!
0R!
0A!
1J!
1A!
1_!
1e!
1k!
1q!
1L!
1S!
1M"
1K"
1J"
1I"
1R
0S
0T
1U
1f
0g
0K!
1Q!
0d!
1i!
0M"
1D
0C
0B
1A
02
11
0_!
0Y!
0S!
0B!
1H"
1L"
1B!
0j!
1o!
1R!
0L!
0e!
0K"
1G"
0p!
0k!
1S!
1F"
0q!
#920000
0%
0Z
07!
#940000
1%
1Z
17!
1|!
1w!
0v!
1B"
0C"
0="
08!
09!
0:!
1?!
0C!
1I!
0P!
0R!
1W!
1X!
0]!
0J"
1K"
1."
02"
07"
0%!
1$!
1*!
1^!
0c!
0X!
1]!
0A!
1K!
0Q!
1R!
0S!
1Y!
1J"
0I"
0R
1S
1g
0^!
1c!
1d!
0i!
0K"
0L"
1M"
1B
0A
12
1_!
0Y!
0R!
0H"
1I"
0B!
1L!
1S!
1j!
0o!
0d!
1i!
1K"
0_!
1e!
1H"
0G"
0S!
0j!
1o!
1p!
1k!
0e!
0F"
1G"
0p!
0k!
1q!
1F"
0q!
#960000
0%
0Z
07!
#980000
1%
1Z
17!
0|!
0{!
0z!
1;"
1<"
1="
18!
0?!
1A!
1C!
1D!
0I!
1M!
01"
12"
0:"
0M"
17"
0,!
0+!
0*!
0L!
1S!
0K!
1Q!
1R!
0W!
0e
0f
0g
0K"
1L"
02
01
00
1X!
0]!
0R!
1W!
1K"
0J"
0X!
1]!
1^!
0c!
0I"
1J"
1d!
0i!
0^!
1c!
1I"
0H"
0d!
1i!
1j!
0o!
0G"
1H"
1p!
0j!
1o!
1G"
0F"
0p!
1F"
